Info: Starting: Create simulation model
Info: qsys-generate /home/dominik/intelFPGA_projects/cyc1000/sdram_controller.qsys --simulation=VERILOG --allow-mixed-language-simulation --output-directory=/home/dominik/intelFPGA_projects/cyc1000/sdram_controller/simulation --family="Cyclone 10 LP" --part=10CL025YU256C8G
Progress: Loading cyc1000/sdram_controller.qsys
Progress: Reading input file
Progress: Adding clk_0 [clock_source 20.1]
Progress: Parameterizing module clk_0
Progress: Adding new_sdram_controller_0 [altera_avalon_new_sdram_controller 20.1]
Progress: Parameterizing module new_sdram_controller_0
Progress: Building connections
Progress: Parameterizing connections
Progress: Validating
Progress: Done reading input file
Info: sdram_controller.new_sdram_controller_0: SDRAM Controller will only be supported in Quartus Prime Standard Edition in the future release.
Info: sdram_controller: Generating sdram_controller "sdram_controller" for SIM_VERILOG
Info: new_sdram_controller_0: Starting RTL generation for module 'sdram_controller_new_sdram_controller_0'
Info: new_sdram_controller_0:   Generation command is [exec /home/dominik/intelFPGA_lite/20.1/quartus/linux64/perl/bin/perl -I /home/dominik/intelFPGA_lite/20.1/quartus/linux64/perl/lib -I /home/dominik/intelFPGA_lite/20.1/quartus/sopc_builder/bin/europa -I /home/dominik/intelFPGA_lite/20.1/quartus/sopc_builder/bin -I /home/dominik/intelFPGA_lite/20.1/quartus/../ip/altera/sopc_builder_ip/common -I /home/dominik/intelFPGA_lite/20.1/quartus/../ip/altera/sopc_builder_ip/altera_avalon_new_sdram_controller -- /home/dominik/intelFPGA_lite/20.1/quartus/../ip/altera/sopc_builder_ip/altera_avalon_new_sdram_controller/generate_rtl.pl --name=sdram_controller_new_sdram_controller_0 --dir=/tmp/alt8560_2095997896738441604.dir/0002_new_sdram_controller_0_gen/ --quartus_dir=/home/dominik/intelFPGA_lite/20.1/quartus --verilog --config=/tmp/alt8560_2095997896738441604.dir/0002_new_sdram_controller_0_gen//sdram_controller_new_sdram_controller_0_component_configuration.pl  --do_build_sim=1    --sim_dir=/tmp/alt8560_2095997896738441604.dir/0002_new_sdram_controller_0_gen/  ]
Info: new_sdram_controller_0: Done RTL generation for module 'sdram_controller_new_sdram_controller_0'
Info: new_sdram_controller_0: "sdram_controller" instantiated altera_avalon_new_sdram_controller "new_sdram_controller_0"
Info: rst_controller: "sdram_controller" instantiated altera_reset_controller "rst_controller"
Info: sdram_controller: Done "sdram_controller" with 3 modules, 5 files
Info: qsys-generate succeeded.
Info: Finished: Create simulation model
Info: Starting: Create Modelsim Project.
Info: sim-script-gen --spd=/home/dominik/intelFPGA_projects/cyc1000/sdram_controller/sdram_controller.spd --output-directory=/home/dominik/intelFPGA_projects/cyc1000/sdram_controller/simulation/ --use-relative-paths=true
Info: Doing: ip-make-simscript --spd=/home/dominik/intelFPGA_projects/cyc1000/sdram_controller/sdram_controller.spd --output-directory=/home/dominik/intelFPGA_projects/cyc1000/sdram_controller/simulation/ --use-relative-paths=true
Info: Generating the following file(s) for MODELSIM simulator in /home/dominik/intelFPGA_projects/cyc1000/sdram_controller/simulation/ directory:
Info: 	mentor/msim_setup.tcl
Info: Generating the following file(s) for VCS simulator in /home/dominik/intelFPGA_projects/cyc1000/sdram_controller/simulation/ directory:
Info: 	synopsys/vcs/vcs_setup.sh
Info: Generating the following file(s) for VCSMX simulator in /home/dominik/intelFPGA_projects/cyc1000/sdram_controller/simulation/ directory:
Info: 	synopsys/vcsmx/synopsys_sim.setup
Info: 	synopsys/vcsmx/vcsmx_setup.sh
Info: Generating the following file(s) for NCSIM simulator in /home/dominik/intelFPGA_projects/cyc1000/sdram_controller/simulation/ directory:
Info: 	cadence/cds.lib
Info: 	cadence/hdl.var
Info: 	cadence/ncsim_setup.sh
Info: 	2 .cds.lib files in cadence/cds_libs/ directory
Info: Generating the following file(s) for RIVIERA simulator in /home/dominik/intelFPGA_projects/cyc1000/sdram_controller/simulation/ directory:
Info: 	aldec/rivierapro_setup.tcl
Info: For information on how to simulate your IP, see the explanatory comments in the simulator-specific subdirectories under /home/dominik/intelFPGA_projects/cyc1000/sdram_controller/simulation/.
Info: Regenerate these scripts whenever you make any change to any Quartus-generated IP in your project.
Info: Finished: Create Modelsim Project.
Info: Starting: Create block symbol file (.bsf)
Info: qsys-generate /home/dominik/intelFPGA_projects/cyc1000/sdram_controller.qsys --block-symbol-file --output-directory=/home/dominik/intelFPGA_projects/cyc1000/sdram_controller --family="Cyclone 10 LP" --part=10CL025YU256C8G
Progress: Loading cyc1000/sdram_controller.qsys
Progress: Reading input file
Progress: Adding clk_0 [clock_source 20.1]
Progress: Parameterizing module clk_0
Progress: Adding new_sdram_controller_0 [altera_avalon_new_sdram_controller 20.1]
Progress: Parameterizing module new_sdram_controller_0
Progress: Building connections
Progress: Parameterizing connections
Progress: Validating
Progress: Done reading input file
Info: sdram_controller.new_sdram_controller_0: SDRAM Controller will only be supported in Quartus Prime Standard Edition in the future release.
Info: qsys-generate succeeded.
Info: Finished: Create block symbol file (.bsf)
Info: 
Info: Starting: Create HDL design files for synthesis
Info: qsys-generate /home/dominik/intelFPGA_projects/cyc1000/sdram_controller.qsys --synthesis=VHDL --greybox --output-directory=/home/dominik/intelFPGA_projects/cyc1000/sdram_controller/synthesis --family="Cyclone 10 LP" --part=10CL025YU256C8G
Progress: Loading cyc1000/sdram_controller.qsys
Progress: Reading input file
Progress: Adding clk_0 [clock_source 20.1]
Progress: Parameterizing module clk_0
Progress: Adding new_sdram_controller_0 [altera_avalon_new_sdram_controller 20.1]
Progress: Parameterizing module new_sdram_controller_0
Progress: Building connections
Progress: Parameterizing connections
Progress: Validating
Progress: Done reading input file
Info: sdram_controller.new_sdram_controller_0: SDRAM Controller will only be supported in Quartus Prime Standard Edition in the future release.
Info: sdram_controller: Generating sdram_controller "sdram_controller" for QUARTUS_SYNTH
Info: new_sdram_controller_0: Starting RTL generation for module 'sdram_controller_new_sdram_controller_0'
Info: new_sdram_controller_0:   Generation command is [exec /home/dominik/intelFPGA_lite/20.1/quartus/linux64/perl/bin/perl -I /home/dominik/intelFPGA_lite/20.1/quartus/linux64/perl/lib -I /home/dominik/intelFPGA_lite/20.1/quartus/sopc_builder/bin/europa -I /home/dominik/intelFPGA_lite/20.1/quartus/sopc_builder/bin -I /home/dominik/intelFPGA_lite/20.1/quartus/../ip/altera/sopc_builder_ip/common -I /home/dominik/intelFPGA_lite/20.1/quartus/../ip/altera/sopc_builder_ip/altera_avalon_new_sdram_controller -- /home/dominik/intelFPGA_lite/20.1/quartus/../ip/altera/sopc_builder_ip/altera_avalon_new_sdram_controller/generate_rtl.pl --name=sdram_controller_new_sdram_controller_0 --dir=/tmp/alt8560_2095997896738441604.dir/0005_new_sdram_controller_0_gen/ --quartus_dir=/home/dominik/intelFPGA_lite/20.1/quartus --verilog --config=/tmp/alt8560_2095997896738441604.dir/0005_new_sdram_controller_0_gen//sdram_controller_new_sdram_controller_0_component_configuration.pl  --do_build_sim=0  ]
Info: new_sdram_controller_0: Done RTL generation for module 'sdram_controller_new_sdram_controller_0'
Info: new_sdram_controller_0: "sdram_controller" instantiated altera_avalon_new_sdram_controller "new_sdram_controller_0"
Info: rst_controller: "sdram_controller" instantiated altera_reset_controller "rst_controller"
Info: sdram_controller: Done "sdram_controller" with 3 modules, 5 files
Info: Generating third-party timing and resource estimation model ...
Info: Done generating third-party timing and resource estimation model.
Info: qsys-generate succeeded.
Info: Finished: Create HDL design files for synthesis
